[
  {
    "id": 1,
    "sequence": "0",
    "image": "/home/x-core/valas_v2/addrunningtext.ui",
    "text": "Text",
    "font": "color: #efefef; font-family: Ubuntu; font-size: 11pt;",
    "active": true
  },
  {
    "id": 2,
    "sequence": "1",
    "image": "/home/x-core/valas_v2/addrunningtext.ui",
    "text": "Text 2",
    "font": "color: #efefef; font-family: Ubuntu; font-size: 11pt;",
    "active": true
  },
  {
    "id": 3,
    "sequence": "4",
    "image": "/home/x-core/valas_v2/addinterest.ui",
    "text": "Test Buka Form",
    "font": "color: #efefef; font-family: Ubuntu; font-size: 11pt;",
    "active": true
  }
]